<!--
This file is part of SystemTestPortal.
Copyright (C) 2017  Institute of Software Technology, University of Stuttgart

SystemTestPortal is free software: you can redistribute it and/or modify
it under the terms of the GNU General Public License as published by
the Free Software Foundation, either version 3 of the License, or
(at your option) any later version.

SystemTestPortal is distributed in the hope that it will be useful,
but WITHOUT ANY WARRANTY; without even the implied warranty of
MERCHANTABILITY or FITNESS FOR A PARTICULAR PURPOSE.  See the
GNU General Public License for more details.

You should have received a copy of the GNU General Public License
along with SystemTestPortal.  If not, see <http://www.gnu.org/licenses/>.
-->

<svg width="600" height="600" xmlns="http://www.w3.org/2000/svg">
 <!-- Created with Method Draw - http://github.com/duopixel/Method-Draw/ -->
 <defs>
  <filter id="svg_6_blur">
   <feGaussianBlur stdDeviation="0.1" in="SourceGraphic"/>
  </filter>
 </defs>
 <g>
  <title>background</title>
  <rect fill="#59a9ff" id="canvas_background" height="602" width="602" y="-1" x="-1"/>
  <g display="none" overflow="visible" y="0" x="0" height="100%" width="100%" id="canvasGrid">
   <rect fill="url(#gridpattern)" stroke-width="0" y="0" x="0" height="100%" width="100%"/>
  </g>
 </g>
 <g>
  <title>Layer 1</title>
  <rect filter="url(#svg_6_blur)" rx="100" id="svg_6" height="420" width="420" y="90" x="90" stroke-width="4" stroke="#ffffff" fill="#007bff"/>
  <text font-style="normal" font-weight="normal" xml:space="preserve" text-anchor="start" font-family="Helvetica, Arial, sans-serif" font-size="172" id="svg_9" y="360" x="242.640625" stroke-width="0" stroke="#ffffff" fill="#ffffff">P</text>
 </g>
</svg>